{
  "data": [
    {
      "id": "69c7d072f3bcc4063e73d691",
      "matchId": "69b3930fc1941202de63ec33",
      "mokiId": "690e5e58de7c5b2b3d195b6f",
      "isBye": false,
      "matchDate": "2026-03-28",
      "results": {
        "winType": "eliminations",
        "deposits": 0,
        "eliminations": 0,
        "wartDistance": 314.13,
        "won": false,
        "endedGame": false,
        "deaths": 3,
        "eatingWhileRiding": 0,
        "buffTimeSeconds": 0,
        "wartRideTimeSeconds": 14.7,
        "looseBallPickups": 0,
        "eatenByWart": 0,
        "wartCloser": true
      },
      "match": {
        "id": "69b3930fc1941202de63ec33",
        "gameType": "mokiMayhem",
        "state": "scored",
        "isBye": false,
        "players": [
          {
            "mokiId": "690e5e58de7c5b2b3d195b6f",
            "team": "red",
            "name": "67",
            "mokiTokenId": 2284,
            "imageUrl": "https://moku-nft-nextjs-s3.s3.us-east-2.amazonaws.com/mokis/20ad4ad20b0a3cc521373cc4501f2fc07609f459e25308aaf9983759ed086dc4.png",
            "class": "Defender"
          },
          {
            "mokiId": "690e5ea2de7c5b2b3d1a0187",
            "team": "red",
            "name": "Moki #4821",
            "mokiTokenId": 4821,
            "imageUrl": "https://moku-nft-nextjs-s3.s3.us-east-2.amazonaws.com/mokis/c7619a2adf8b0a41d31e4c3d1ba9f8df0ba651097851c09f888b2010ceae0dcf.png",
            "class": "Defender"
          },
          {
            "mokiId": "690e5e65de7c5b2b3d197a8c",
            "team": "red",
            "name": "Moki #2752",
            "mokiTokenId": 2752,
            "imageUrl": "https://moku-nft-nextjs-s3.s3.us-east-2.amazonaws.com/mokis/37aadd65333cf48f19ccc5d253b7e0374bff20b7042a4a57ef2dcc6499cda554.png",
            "class": "Defender"
          },
          {
            "mokiId": "690e5ebede7c5b2b3d1a3e7b",
            "team": "blue",
            "name": "The Champ MoTZ",
            "mokiTokenId": 5809,
            "imageUrl": "https://moku-nft-nextjs-s3.s3.us-east-2.amazonaws.com/mokis/3e684ca6e8ecd6b7404b29b303d2990a34dac7a6726729c38d203c494ca60d38.png",
            "class": "Sprinter"
          },
          {
            "mokiId": "690e5ef9de7c5b2b3d1ac956",
            "team": "blue",
            "name": "Moki #7999",
            "mokiTokenId": 7999,
            "imageUrl": "https://moku-nft-nextjs-s3.s3.us-east-2.amazonaws.com/mokis/ac12f0765619eff1fd27486d5350aee17958b029313121c8b5567e39c2d8cf24.png",
            "class": "Center"
          },
          {
            "mokiId": "690e5e3fde7c5b2b3d191de6",
            "team": "blue",
            "name": "Moki #1360",
            "mokiTokenId": 1360,
            "imageUrl": "https://moku-nft-nextjs-s3.s3.us-east-2.amazonaws.com/mokis/c4986016aa1e1b60f294991dd9c1938672f805616d022788dc651cc99e3a814f.png",
            "class": "Sprinter"
          }
        ],
        "result": {
          "players": [
            {
              "mokiId": "690e5e3fde7c5b2b3d191de6",
              "deposits": 0,
              "eliminations": 1,
              "wartDistance": 0,
              "deaths": 1,
              "endedGame": false,
              "eatingWhileRiding": 0,
              "buffTimeSeconds": 16.49,
              "wartRideTimeSeconds": 0,
              "looseBallPickups": 0,
              "eatenByWart": 0,
              "wartCloser": false
            },
            {
              "mokiId": "690e5ebede7c5b2b3d1a3e7b",
              "deposits": 0,
              "eliminations": 2,
              "wartDistance": 0,
              "deaths": 1,
              "endedGame": false,
              "eatingWhileRiding": 0,
              "buffTimeSeconds": 21.36,
              "wartRideTimeSeconds": 0,
              "looseBallPickups": 0,
              "eatenByWart": 0,
              "wartCloser": false
            },
            {
              "mokiId": "690e5ef9de7c5b2b3d1ac956",
              "deposits": 0,
              "eliminations": 3,
              "wartDistance": 36.69,
              "deaths": 1,
              "endedGame": true,
              "eatingWhileRiding": 0,
              "buffTimeSeconds": 11.79,
              "wartRideTimeSeconds": 2.2,
              "looseBallPickups": 0,
              "eatenByWart": 0,
              "wartCloser": false
            },
            {
              "mokiId": "690e5e58de7c5b2b3d195b6f",
              "deposits": 0,
              "eliminations": 0,
              "wartDistance": 314.13,
              "deaths": 3,
              "endedGame": false,
              "eatingWhileRiding": 0,
              "buffTimeSeconds": 0,
              "wartRideTimeSeconds": 14.7,
              "looseBallPickups": 0,
              "eatenByWart": 0,
              "wartCloser": true
            },
            {
              "mokiId": "690e5e65de7c5b2b3d197a8c",
              "deposits": 0,
              "eliminations": 2,
              "wartDistance": 0,
              "deaths": 2,
              "endedGame": false,
              "eatingWhileRiding": 0,
              "buffTimeSeconds": 26.92,
              "wartRideTimeSeconds": 0,
              "looseBallPickups": 0,
              "eatenByWart": 0,
              "wartCloser": true
            },
            {
              "mokiId": "690e5ea2de7c5b2b3d1a0187",
              "deposits": 0,
              "eliminations": 1,
              "wartDistance": 0,
              "deaths": 1,
              "endedGame": false,
              "eatingWhileRiding": 0,
              "buffTimeSeconds": 12.16,
              "wartRideTimeSeconds": 0,
              "looseBallPickups": 0,
              "eatenByWart": 0,
              "wartCloser": true
            }
          ],
          "winType": "eliminations",
          "teamWon": "blue",
          "duration": 47.02,
          "gameEndedBy": "Moki #7999"
        },
        "matchDate": "2026-03-28"
      }
    },
    {
      "id": "69c7cb71f3bcc4063e72cf05",
      "matchId": "69b3930fc1941202de63ebda",
      "mokiId": "690e5e58de7c5b2b3d195b6f",
      "isBye": false,
      "matchDate": "2026-03-28",
      "results": {
        "winType": "eliminations",
        "deposits": 0,
        "eliminations": 2,
        "wartDistance": 0,
        "won": true,
        "endedGame": false,
        "deaths": 0,
        "eatingWhileRiding": 0,
        "buffTimeSeconds": 34.51,
        "wartRideTimeSeconds": 0,
        "looseBallPickups": 0,
        "eatenByWart": 0,
        "wartCloser": true
      },
      "match": {
        "id": "69b3930fc1941202de63ebda",
        "gameType": "mokiMayhem",
        "state": "scored",
        "isBye": false,
        "players": [
          {
            "mokiId": "690e5e58de7c5b2b3d195b6f",
            "team": "blue",
            "name": "67",
            "mokiTokenId": 2284,
            "imageUrl": "https://moku-nft-nextjs-s3.s3.us-east-2.amazonaws.com/mokis/20ad4ad20b0a3cc521373cc4501f2fc07609f459e25308aaf9983759ed086dc4.png",
            "class": "Defender"
          },
          {
            "mokiId": "690e5e3cde7c5b2b3d1915e5",
            "team": "blue",
            "name": "Mit",
            "mokiTokenId": 1239,
            "imageUrl": "https://moku-nft-nextjs-s3.s3.us-east-2.amazonaws.com/mokis/a012c496e33bb5076073c5bd63a0de64bfc7b0937d06157218193d1c22bf11c1.png",
            "class": "Striker"
          },
          {
            "mokiId": "690e5ea7de7c5b2b3d1a12c7",
            "team": "blue",
            "name": "Moki #5095",
            "mokiTokenId": 5095,
            "imageUrl": "https://moku-nft-nextjs-s3.s3.us-east-2.amazonaws.com/mokis/28192fa77cf55ef0908700a70e7fddf3fa685fd21357db78887417c6c7e7ced7.png",
            "class": "Anchor"
          },
          {
            "mokiId": "690e5ebbde7c5b2b3d1a387b",
            "team": "red",
            "name": "Fernecito",
            "mokiTokenId": 5710,
            "imageUrl": "https://moku-nft-nextjs-s3.s3.us-east-2.amazonaws.com/mokis/f38d9c0123af3e24e42b3692de373a8cea9f5b602f42b7a59a40191c59fc1943.png",
            "class": "Defender"
          },
          {
            "mokiId": "690e5efcde7c5b2b3d1aca97",
            "team": "red",
            "name": "Moki #8018",
            "mokiTokenId": 8018,
            "imageUrl": "https://moku-nft-nextjs-s3.s3.us-east-2.amazonaws.com/mokis/fca50aa8917c97552a9cfe6fa69e0aab9db6e8c3549465f4fa686f38a36f2898.png",
            "class": "Bruiser"
          },
          {
            "mokiId": "690e5eb8de7c5b2b3d1a3711",
            "team": "red",
            "name": "Moki #5689",
            "mokiTokenId": 5689,
            "imageUrl": "https://moku-nft-nextjs-s3.s3.us-east-2.amazonaws.com/mokis/154c6ec4e47e9f4f7e8928672bd7a832ccf56ec77d1a694c798a734569e050a5.png",
            "class": "Flanker"
          }
        ],
        "result": {
          "players": [
            {
              "mokiId": "690e5e3cde7c5b2b3d1915e5",
              "deposits": 0,
              "eliminations": 2,
              "wartDistance": 0,
              "deaths": 0,
              "endedGame": true,
              "eatingWhileRiding": 0,
              "buffTimeSeconds": 29.87,
              "wartRideTimeSeconds": 0,
              "looseBallPickups": 0,
              "eatenByWart": 0,
              "wartCloser": true
            },
            {
              "mokiId": "690e5e58de7c5b2b3d195b6f",
              "deposits": 0,
              "eliminations": 2,
              "wartDistance": 0,
              "deaths": 0,
              "endedGame": false,
              "eatingWhileRiding": 0,
              "buffTimeSeconds": 34.51,
              "wartRideTimeSeconds": 0,
              "looseBallPickups": 0,
              "eatenByWart": 0,
              "wartCloser": true
            },
            {
              "mokiId": "690e5ea7de7c5b2b3d1a12c7",
              "deposits": 1,
              "eliminations": 2,
              "wartDistance": 371.45,
              "deaths": 1,
              "endedGame": false,
              "eatingWhileRiding": 2,
              "buffTimeSeconds": 0,
              "wartRideTimeSeconds": 25.61,
              "looseBallPickups": 0,
              "eatenByWart": 0,
              "wartCloser": true
            },
            {
              "mokiId": "690e5eb8de7c5b2b3d1a3711",
              "deposits": 3,
              "eliminations": 0,
              "wartDistance": 0,
              "deaths": 1,
              "endedGame": false,
              "eatingWhileRiding": 0,
              "buffTimeSeconds": 0,
              "wartRideTimeSeconds": 0,
              "looseBallPickups": 0,
              "eatenByWart": 0,
              "wartCloser": false
            },
            {
              "mokiId": "690e5ebbde7c5b2b3d1a387b",
              "deposits": 0,
              "eliminations": 0,
              "wartDistance": 0,
              "deaths": 2,
              "endedGame": false,
              "eatingWhileRiding": 0,
              "buffTimeSeconds": 3.87,
              "wartRideTimeSeconds": 0,
              "looseBallPickups": 0,
              "eatenByWart": 1,
              "wartCloser": false
            },
            {
              "mokiId": "690e5efcde7c5b2b3d1aca97",
              "deposits": 0,
              "eliminations": 1,
              "wartDistance": 0,
              "deaths": 3,
              "endedGame": false,
              "eatingWhileRiding": 0,
              "buffTimeSeconds": 8.5,
              "wartRideTimeSeconds": 0,
              "looseBallPickups": 0,
              "eatenByWart": 1,
              "wartCloser": false
            }
          ],
          "winType": "eliminations",
          "teamWon": "blue",
          "duration": 44.23,
          "gameEndedBy": "Moki #1239"
        },
        "matchDate": "2026-03-28"
      }
    }
  ],
  "pagination": {
    "page": 1,
    "limit": 2,
    "total": 1784,
    "pages": 892
  }
}